{
  "project_info": {
    "project_number": "716539289020",
    "project_id": "usahaq-id",
    "storage_bucket": "usahaq-id.appspot.com"
  },
  "client": [
    {
      "client_info": {
        "mobilesdk_app_id": "1:716539289020:android:837ffb0f4ea0c9f8bb5fb9",
        "android_client_info": {
          "package_name": "com.usahaq.usahaq"
        }
      },
      "oauth_client": [
        {
          "client_id": "716539289020-gl00oafmlifi1piqb679n81evg0o3kto.apps.googleusercontent.com",
          "client_type": 1,
          "android_info": {
            "package_name": "com.usahaq.usahaq",
            "certificate_hash": "a8a9ddae3338c5929ad834b0af73be7ca47f4461"
          }
        },
        {
          "client_id": "716539289020-eephtbbq5lq6l7mvcragk4jjc04nhb9q.apps.googleusercontent.com",
          "client_type": 3
        }
      ],
      "api_key": [
        {
          "current_key": "AIzaSyACaBKLgb_F__C3HgQWYmfi8M3wcJrRiKY"
        }
      ],
      "services": {
        "appinvite_service": {
          "other_platform_oauth_client": [
            {
              "client_id": "716539289020-eephtbbq5lq6l7mvcragk4jjc04nhb9q.apps.googleusercontent.com",
              "client_type": 3
            }
          ]
        }
      }
    }
  ],
  "configuration_version": "1"
}